{
  "name": "teaser-management-frontend",
  "version": "0.1.0",
  "private": true,
  "scripts": {
    "serve": "LOCAL_BACKEND=8082 vue-cli-service serve",
    "serve:integration": "BACKEND_PORT=8012 PERMISSIONS_PORT=8030 VOUCHER_SERVICE_PORT=7891 LAYER_SERVICE_PORT=8032 NOTIFICATION_SERVICE_PORT=8034 TEASER_KPI_PORT=8090 vue-cli-service serve",
    "build": "vue-cli-service build --modern",
    "lint": "vue-cli-service lint",
    "test:e2e": "vue-cli-service test:e2e --headless",
    "test:unit": "vue-cli-service test:unit",
    "test:locales": "test:unit"
  },
  "dependencies": {
    "@cypress/webpack-preprocessor": "^5.4.5",
    "@kmo/belle": "^45.7.2",
    "@vue/cli-plugin-babel": "^4.5.4",
    "@vue/cli-plugin-e2e-cypress": "^4.5.4",
    "@vue/cli-plugin-eslint": "^4.5.4",
    "@vue/cli-plugin-unit-jest": "^4.5.4",
    "@vue/cli-service": "^4.5.4",
    "@vue/eslint-config-standard": "^5.1.2",
    "@vue/test-utils": "^1.0.0-beta.29",
    "babel-eslint": "^10.1.0",
    "eslint-plugin-import": "^2.22.0",
    "eslint-plugin-node": "^11.1.0",
    "eslint-plugin-promise": "^4.2.1",
    "eslint-plugin-standard": "^4.0.1",
    "eslint-plugin-vue": "^6.2.2",
    "flush-promises": "^1.0.2",
    "iframe-resizer": "^4.2.9",
    "locale-currency": "^0.0.2",
    "lodash": "^4.17.15",
    "moment": "^2.24.0",
    "moment-locales-webpack-plugin": "^1.2.0",
    "multiparty": "^4.2.1",
    "postcss-preset-env": "^6.7.0",
    "querystring": "^0.2.1",
    "semantic-ui-css": "^2.4.1",
    "semantic-ui-vue": "^0.11.0",
    "tiptap": "^1.32.1",
    "tiptap-extensions": "^1.35.1",
    "url-parse": "^1.5.1",
    "uuid": "^8.3.0",
    "v-money": "^0.8.1",
    "vee-validate": "^2.1.2",
    "vue": "^2.6.12",
    "vue-cli-plugin-i18n": "^0.6.0",
    "vue-ctk-date-time-picker": "^2.4.0",
    "vue-i18n": "^8.15.1",
    "vue-resource": "^1.5.1",
    "vue-router": "^3.0.1",
    "vue-shortkey": "^3.1.7",
    "vue-template-compiler": "^2.5.17",
    "vuedraggable": "^2.24.1",
    "vuejs-paginate": "^2.1.0",
    "vuex": "^3.0.1"
  },
  "devDependencies": {
    "babel-core": "7.0.0-bridge.0",
    "babel-jest": "^24.7.1",
    "eslint": "^7.7.0",
    "identity-obj-proxy": "^3.0.0",
    "jest": "^26.4.2",
    "json-server": "^0.16.1"
  },
  "resolutions": {
    "handlebars": "~4.5.3"
  }
}
